<svg xmlns="http://www.w3.org/2000/svg" width="47" height="41" viewBox="0 0 47 41">
    <g fill="#FFF" fill-rule="nonzero">
        <path d="M27.811 14.668c-.756.76-1.775 1.197-2.801 1.197a3.305 3.305 0 0 1-2.354-.95l-9.289-9.337-.84.844 3.208 3.224-10.4 10.448a3.835 3.835 0 0 0-1.087 3.015C1.502 20.322-.005 16.785 0 13.145c.005-3.48 1.384-6.774 3.885-9.271A13.134 13.134 0 0 1 13.225 0c2.084 0 4.069.47 5.902 1.39.747.371 1.474.827 2.16 1.363l.326.256 6.45 6.475c1.346 1.363 1.237 3.688-.252 5.184z"/>
        <path d="M20.08 14.308L9.81 24.602c-.48.477-1.13.743-1.814.743a2.767 2.767 0 0 1-1.965-.827 2.77 2.77 0 0 1-.825-1.97c0-.69.26-1.336.741-1.818l10.27-10.294 3.863 3.872z"/>
        <path d="M46.11 13.262c.003 3.698-1.522 7.286-4.299 10.107a5910.312 5910.312 0 0 0-5.502 5.575L25.078 40.238A2.556 2.556 0 0 1 23.24 41a2.768 2.768 0 0 1-1.989-.848 2.871 2.871 0 0 1-.831-1.968 2.638 2.638 0 0 1 .746-1.912l10.919-11.078-1.019-1.035-10.92 11.08a2.583 2.583 0 0 1-1.837.76c-.741 0-1.45-.301-1.989-.846a2.859 2.859 0 0 1-.835-2.017c0-.71.264-1.37.75-1.864l10.92-11.079-1.161-1.178L15.07 30.09a2.554 2.554 0 0 1-1.837.762 2.774 2.774 0 0 1-1.99-.847 2.874 2.874 0 0 1-.83-1.969 2.62 2.62 0 0 1 .746-1.912l10.395-10.541.316.32a4.451 4.451 0 0 0 3.188 1.313c1.328 0 2.655-.57 3.642-1.561 1.946-1.983 2.059-5.092.246-6.93l-5.063-5.136A13.044 13.044 0 0 1 32.89 0c3.518 0 6.834 1.39 9.336 3.909 2.5 2.518 3.88 5.842 3.883 9.353z"/>
    </g>
</svg>
