<svg xmlns="http://www.w3.org/2000/svg" viewBox="0 0 30 39">
  <path fill="#FFF" d="M200.625,1820 C209.232422,1820 215.25,1813.37305 215.25,1803.88965 C215.25,1797.80349 209.141001,1788.68577 200.625,1781 C192.070913,1788.7162 186,1797.8264 186,1803.88965 C186,1813.37305 192.017578,1820 200.625,1820 Z M200.625,1815.125 C196.321289,1815.125 193.3125,1812.1543 193.3125,1807.90392 C193.3125,1806.8756 193.662861,1803.21935 200.625,1795.625 C207.587139,1803.21935 207.9375,1806.8756 207.9375,1807.90392 C207.9375,1812.1543 204.928711,1815.125 200.625,1815.125 Z" transform="translate(-186 -1781)"/>
</svg>
